<svg width="100" height="100" viewBox="0 0 100 100" fill="none" xmlns="http://www.w3.org/2000/svg">
<circle cx="50" cy="50" r="50" fill="black"/>
<ellipse cx="49.5" cy="50" rx="44.5" ry="45" fill="#C4C4C4"/>
<path d="M35.75 68.7539C35.3008 68.6758 34.8613 68.5977 34.4316 68.5195C34.002 68.4609 33.5918 68.3828 33.2012 68.2852C32.0098 70.4922 30.7695 72.6016 29.4805 74.6133C28.1914 76.625 26.8633 78.3926 25.4961 79.916C24.1289 81.4395 22.7324 82.6504 21.3066 83.5488C19.9004 84.4473 18.4746 84.8965 17.0293 84.8965C16.4434 84.8965 15.9355 84.7891 15.5059 84.5742C15.0566 84.3594 14.6855 84.0664 14.3926 83.6953C14.0996 83.3242 13.875 82.9043 13.7188 82.4355C13.5625 81.9863 13.4844 81.5078 13.4844 81C13.4844 78.2656 14.373 75.5117 16.1504 72.7383C17.9082 69.9844 20.7109 67.2109 24.5586 64.418C23.3672 63.4805 22.3809 62.4648 21.5996 61.3711C20.8379 60.2578 20.2227 59.1055 19.7539 57.9141C19.3047 56.7227 18.9922 55.5215 18.8164 54.3105C18.6406 53.0801 18.5527 51.8887 18.5527 50.7363C18.5527 48.1387 18.9238 45.6777 19.666 43.3535C20.4082 41.0098 21.3945 38.8418 22.625 36.8496C23.875 34.8379 25.3008 33.0312 26.9023 31.4297C28.5234 29.8086 30.2031 28.4316 31.9414 27.2988C33.6992 26.166 35.457 25.2969 37.2148 24.6914C38.9727 24.0664 40.6133 23.7539 42.1367 23.7539C42.8594 23.7539 43.5332 23.8516 44.1582 24.0469C44.8027 24.2227 45.3594 24.5547 45.8281 25.043C46.2969 25.5312 46.6582 26.1953 46.9121 27.0352C47.1855 27.875 47.3223 28.9492 47.3223 30.2578C47.3223 32.2891 46.9023 34.8965 46.0625 38.0801C45.2422 41.2637 43.8457 45.1309 41.873 49.6816C41.4238 50.6777 40.9551 51.7324 40.4668 52.8457C39.998 53.959 39.4902 55.1309 38.9434 56.3613C39.4902 56.127 40.0371 55.8926 40.584 55.6582C41.1309 55.4043 41.6973 55.1504 42.2832 54.8965L42.752 56.127C41.9512 56.459 41.1699 56.8008 40.4082 57.1523C39.6465 57.4844 38.8848 57.8359 38.123 58.207C37.4785 59.6523 36.7949 61.1172 36.0723 62.6016C35.3691 64.0664 34.6367 65.5312 33.875 66.9961C34.2461 67.0938 34.6172 67.1816 34.9883 67.2598C35.3789 67.3574 35.7695 67.4551 36.1602 67.5527L35.75 68.7539ZM22.5664 50.5605C22.5664 52.2012 22.6445 53.6855 22.8008 55.0137C22.957 56.3223 23.1816 57.4941 23.4746 58.5293C23.7871 59.5449 24.168 60.4531 24.6172 61.2539C25.0664 62.0352 25.584 62.7188 26.1699 63.3047C27.4395 62.4648 28.7969 61.625 30.2422 60.7852C31.6875 59.9453 33.25 59.1055 34.9297 58.2656C35.6719 56.2734 36.3555 54.3984 36.9805 52.6406C37.625 50.8633 38.2109 49.3008 38.7383 47.9531C39.5781 45.8047 40.3691 43.7344 41.1113 41.7422C41.873 39.75 42.5273 37.8945 43.0742 36.1758C43.6406 34.457 44.0801 32.9043 44.3926 31.5176C44.7246 30.1113 44.8906 28.9102 44.8906 27.9141C44.8906 26.8008 44.6855 26.0195 44.2754 25.5703C43.8848 25.1016 43.2305 24.8672 42.3125 24.8672C41.043 24.8672 39.6758 25.1992 38.2109 25.8633C36.7461 26.5273 35.2812 27.4551 33.8164 28.6465C32.3516 29.8184 30.9355 31.2148 29.5684 32.8359C28.2207 34.4375 27.0293 36.1953 25.9941 38.1094C24.959 40.0039 24.1289 42.0156 23.5039 44.1445C22.8789 46.2539 22.5664 48.3926 22.5664 50.5605ZM27.8984 73.2656C28.4453 72.4258 28.9727 71.5371 29.4805 70.5996C29.9883 69.6621 30.4863 68.6953 30.9746 67.6992C30.0176 67.3867 29.1289 67.0449 28.3086 66.6738C27.5078 66.3027 26.7559 65.9023 26.0527 65.4727C24.666 66.5469 23.4062 67.6602 22.2734 68.8125C21.1602 69.9648 20.2031 71.1367 19.4023 72.3281C18.6211 73.5391 18.0059 74.7695 17.5566 76.0195C17.127 77.2891 16.9121 78.5684 16.9121 79.8574C16.9121 80.6582 17.0879 81.1855 17.4395 81.4395C17.791 81.6934 18.1523 81.8203 18.5234 81.8203C19.6172 81.8203 20.9648 81.127 22.5664 79.7402C24.168 78.373 25.9453 76.2148 27.8984 73.2656ZM27.4883 64.3887C28.0742 64.7988 28.709 65.1602 29.3926 65.4727C30.0762 65.7852 30.8184 66.0781 31.6191 66.3516C32.0879 65.3555 32.5371 64.3496 32.9668 63.334C33.3965 62.2988 33.8066 61.2539 34.1973 60.1992C33.0059 60.8633 31.8438 61.5469 30.7109 62.25C29.5977 62.9336 28.5234 63.6465 27.4883 64.3887ZM65.9844 66.5273C64.8711 66.5273 63.8066 66.3809 62.791 66.0879C61.7949 65.7949 60.8379 65.4141 59.9199 64.9453C59.002 64.4766 58.123 63.959 57.2832 63.3926C56.4629 62.8066 55.6719 62.2207 54.9102 61.6348C53.8555 63.0996 52.7129 64.2715 51.4824 65.1504C50.252 66.0098 48.875 66.4395 47.3516 66.4395C46.8047 66.4395 46.2578 66.3516 45.7109 66.1758C45.1445 66 44.6367 65.7363 44.1875 65.3848C43.7383 65.0137 43.377 64.5449 43.1035 63.9785C42.8105 63.4121 42.6641 62.7285 42.6641 61.9277C42.6641 61.1855 42.8105 60.4824 43.1035 59.8184C43.377 59.1543 43.7773 58.5684 44.3047 58.0605C44.832 57.5527 45.4668 57.1523 46.209 56.8594C46.9512 56.5469 47.7812 56.3906 48.6992 56.3906C49.4414 56.3906 50.1934 56.5664 50.9551 56.918C51.7363 57.25 52.5371 57.6797 53.3574 58.207C53.8652 57.0352 54.3926 55.707 54.9395 54.2227C55.5059 52.7383 56.1504 51.0684 56.873 49.2129C57.4199 47.748 57.9863 46.2441 58.5723 44.7012C59.1777 43.1582 59.793 41.6543 60.418 40.1895C61.0625 38.7051 61.707 37.3086 62.3516 36C63.0156 34.6914 63.6895 33.5488 64.373 32.5723C65.4277 31.0293 66.4141 29.7598 67.332 28.7637C68.2695 27.7676 69.1875 26.957 70.0859 26.332C70.9844 25.707 71.8828 25.2188 72.7812 24.8672C73.6797 24.5156 74.6465 24.2227 75.6816 23.9883C75.9941 23.9102 76.3164 23.8613 76.6484 23.8418C77 23.8027 77.3418 23.7832 77.6738 23.7832C78.6309 23.7832 79.5781 23.9395 80.5156 24.252C81.4727 24.5645 82.3223 25.0332 83.0645 25.6582C83.8066 26.2637 84.4023 27.0156 84.8516 27.9141C85.3203 28.8125 85.5547 29.8574 85.5547 31.0488C85.5547 32.0645 85.3789 32.9629 85.0273 33.7441C84.6953 34.5254 84.2461 35.2285 83.6797 35.8535C83.1328 36.4785 82.498 37.0547 81.7754 37.582C81.0723 38.1094 80.3398 38.6172 79.5781 39.1055C78.8359 39.5938 78.1426 40.0234 77.498 40.3945C76.873 40.7461 76.3262 41.0781 75.8574 41.3906C75.3887 41.6836 75.0176 41.9766 74.7441 42.2695C74.4902 42.543 74.3633 42.8457 74.3633 43.1777C74.3633 43.5684 74.5586 44.1738 74.9492 44.9941C75.3594 45.7949 75.7988 46.752 76.2676 47.8652C76.7559 48.9785 77.1953 50.209 77.5859 51.5566C77.9961 52.9043 78.2012 54.291 78.2012 55.7168C78.2012 57.3379 77.8789 58.8125 77.2344 60.1406C76.6094 61.4492 75.75 62.582 74.6562 63.5391C73.5625 64.4961 72.2637 65.2383 70.7598 65.7656C69.2754 66.2734 67.6836 66.5273 65.9844 66.5273ZM65.5742 64.7988C66.8438 64.7988 68.0059 64.5547 69.0605 64.0664C70.1348 63.5781 71.0527 62.9238 71.8145 62.1035C72.5957 61.2832 73.2012 60.3457 73.6309 59.291C74.0605 58.2363 74.2754 57.1328 74.2754 55.9805C74.2754 54.8672 74.0996 53.7441 73.748 52.6113C73.416 51.4785 73.0352 50.4141 72.6055 49.418C72.1953 48.4023 71.8145 47.4844 71.4629 46.6641C71.1309 45.8438 70.9648 45.1895 70.9648 44.7012C70.9648 44.291 71.082 43.9199 71.3164 43.5879C71.5508 43.2363 71.8828 42.8848 72.3125 42.5332C72.7617 42.1816 73.3086 41.791 73.9531 41.3613C74.5977 40.9316 75.3301 40.4238 76.1504 39.8379C76.9316 39.291 77.6543 38.7051 78.3184 38.0801C79.002 37.4355 79.5879 36.752 80.0762 36.0293C80.584 35.3066 80.9746 34.5449 81.248 33.7441C81.541 32.9238 81.6875 32.0449 81.6875 31.1074C81.6875 30.1504 81.541 29.3203 81.248 28.6172C80.9746 27.8945 80.5742 27.2988 80.0469 26.8301C79.5195 26.3613 78.8848 26.0098 78.1426 25.7754C77.4199 25.541 76.6094 25.4238 75.7109 25.4238C75.1836 25.4238 74.6758 25.4922 74.1875 25.6289C73.7188 25.7656 73.3281 25.9316 73.0156 26.127C72.2734 26.5957 71.5312 27.2891 70.7891 28.207C70.0664 29.1055 69.3535 30.1602 68.6504 31.3711C67.9668 32.582 67.2832 33.9199 66.5996 35.3848C65.9355 36.8301 65.2812 38.3242 64.6367 39.8672C64.0117 41.3906 63.3965 42.9336 62.791 44.4961C62.2051 46.0391 61.6387 47.5234 61.0918 48.9492C60.3105 50.9609 59.5 52.9238 58.6602 54.8379C57.8398 56.752 56.9316 58.5 55.9355 60.082C56.6973 60.6484 57.4688 61.2148 58.25 61.7812C59.0312 62.3281 59.8223 62.8262 60.623 63.2754C61.4238 63.7246 62.2344 64.0957 63.0547 64.3887C63.875 64.6621 64.7148 64.7988 65.5742 64.7988ZM47.0293 64.9746C47.6348 64.9746 48.1816 64.877 48.6699 64.6816C49.1777 64.4668 49.6465 64.1543 50.0762 63.7441C50.5254 63.334 50.9551 62.8066 51.3652 62.1621C51.7754 61.5176 52.1855 60.7559 52.5957 59.877C51.8535 59.3301 51.1309 58.8906 50.4277 58.5586C49.7246 58.207 49.0508 58.0312 48.4062 58.0312C47.6836 58.0312 47.0586 58.1582 46.5312 58.4121C45.9844 58.6465 45.5352 58.959 45.1836 59.3496C44.8125 59.7207 44.5391 60.1504 44.3633 60.6387C44.168 61.1074 44.0703 61.5664 44.0703 62.0156C44.0703 62.9336 44.3438 63.6562 44.8906 64.1836C45.418 64.7109 46.1309 64.9746 47.0293 64.9746Z" fill="black"/>
</svg>
